[npc]
volkner
down
250
14
4
Lunatone,60,Solrock,60,Xatu,60,Claydol,60
4
31
0
false
false
false
[/npc]
[warp]
25
104
4
11
45
-42
0
[/warp]
[warp]
24
104
4
11
45
-42
0
[/warp]
[warp]
18
88
19
70
-42
48
0
[/warp]
[warp]
19
71
18
89
-42
48
0
[/warp]
[warp]
20
71
18
89
-42
48
0
[/warp]
[warp]
13
49
18
31
-42
48
0
[/warp]
[warp]
18
32
13
50
-42
48
0
[/warp]
[warp]
19
32
13
50
-42
48
0
[/warp]