[npc]
Citizen
right
325
5
5
NULL
0
-1
0,1,2
false
false
false
[/npc]
[npc]
Citizen
down
261
8
3
NULL
0
-1
3
false
false
false
[/npc]
[warp]
5
10
27
22
6
-2
0
[/warp]