[npc]
Seasond_Sailor
up
395
16
80
NULL
0
-1
0
false
false
false
[/npc]
[warp]
12
39
10
11
-45
46
0
[/warp]
[warp]
21
17
12
15
-48
46
0
[/warp]
[warp]
44
27
6
12
-43
46
0
[/warp]
[warp]
71
55
15
16
-42
49
0
[/warp]
[warp]
69
27
8
11
-46
46
0
[/warp]
[warp]
75
14
13
9
-42
46
0
[/warp]
[warp]
101
27
8
12
-49
46
0
[/warp]
[warp]
108
64
14
10
-44
46
0
[/warp]
[warp]
121
13
8
16
-41
46
0
[/warp]
[warp]
99
12
8
11
-47
46
0
[/warp]
[warp]
64
55
5
7
-50
45
0
[/warp]
[warp]
91
7
46
102
-40
-37
0
[/warp]
[warp]
53
61
31
62
-40
-37
0
[/warp]
