[npc]
NULL
down
0
23
1
NULL
0
-1
0,1
false
false
false
[/npc]
[npc]
NULL
down
0
32
10
NULL
0
-1
2
false
false
false
[/npc]
[npc]
NULL
down
0
20
16
NULL
0
-1
3
false
false
false
[/npc]
[npc]
NULL
down
0
20
31
NULL
0
-1
0,4
false
false
false
[/npc]
[warp]
25
11
5
7
-46
-20
0
[/warp]
[warp]
25
17
5
7
-46
-19
0
[/warp]
[warp]
26
17
6
7
-46
-19
0
[/warp]
[warp]
26
26
15
16
-50
-29
0
[/warp]
[warp]
35
19
5
7
-50
-30
0
[/warp]
[warp]
36
10
23
43
-31
-30
7
[/warp]