[npc]
Fisherman Wade
down
368
15
26
Magikarp,27,Magikarp,27,Magikarp,27,Magikarp,27,Magikarp,27,Magikarp,27
6
-1
0
false
false
false
[/npc]
[npc]
Fisherman Ronald
up
368
7
26
Seaking,28,Goldeen,28,Seaking,28,Seaking,28
4
-1
1
false
false
false
[/npc]
[npc]
Swimmer Ian
down
281
14
35
Seadra,33
1
-1
2
false
false
false
[/npc]
[npc]
Swimmer Lil
down
282
13
35
Starmie,33
1
-1
3
false
false
false
[/npc]
[npc]
Swimmer Spencer
right
281
8
42
Seadra,33,Tentacruel,33
2
-1
4
false
false
false
[/npc]
[npc]
Fisherman Claude
right
368
11
58
Shellder,31,Cloyster,31
2
-1
5
false
false
false
[/npc]
[npc]
Fisherman Nolan
left
368
14
65
Seaking,33,Goldeen,33
2
-1
6
false
false
false
[/npc]
[npc]
Swimmer Jack
right
281
15
73
Starmie,37
1
-1
7
false
false
false
[/npc]
[npc]
Swimmer Roland
right
281
11
76
Poliwhirl,32,Tentacool,32,Seadra,32
3
-1
8
false
false
false
[/npc]
[npc]
Swimmer Jerome
left
281
15
86
Staryu,33,Wartortle,33
2
-1
9
false
false
false
[/npc]