[npc]
NULL
down
0
13
5
NULL
0
-1
0,1
false
false
false
[/npc]
[npc]
NULL
down
0
9
7
NULL
0
-1
2
false
false
false
[/npc]
[npc]
NULL
down
0
11
14
NULL
0
-1
3
false
false
false
[/npc]
[warp]
14
12
15
16
-44
-31
0
[/warp]
[warp]
19
9
5
7
-44
-30
0
[/warp]
[warp]
8
5
7
36
-49
-15
0
[/warp]
[warp]
17
5
21
37
-48
-28
0
[/warp]
[warp]
7
14
26
48
-40
-10
0
[/warp]