[warp]
30
59
35
83
26
-45
32
[/warp]
[warp]
40
42
54
20
26
-45
0
[/warp]
[warp]
24
12
12
17
-48
1
0
[/warp]
[warp]
25
12
12
17
-48
1
0
[/warp]
[warp]
18
60
15
16
-47
3
0
[/warp]